^C:\USERS\HOPE\SOURCE\REPOS\LABA\LABA\DEBUG\HORSE.OBJ|C:\USERS\HOPE\SOURCE\REPOS\LABA\LABA\DEBUG\HORSEARRAY.OBJ|C:\USERS\HOPE\SOURCE\REPOS\LABA\LABA\DEBUG\MAIN.OBJ
C:\USERS\HOPE\SOURCE\REPOS\LABA\DEBUG\LABA.EXE
C:\USERS\HOPE\SOURCE\REPOS\LABA\DEBUG\LABA.ILK
C:\USERS\HOPE\SOURCE\REPOS\LABA\DEBUG\LABA.PDB
